Data Analytics - Práctica final
…
6.2 Daily Revenue

6.2.0.1 Compute and plot the revenue per day and per month. Also compute the total revenue of the tracking period.

  trackingData = GetTrackinData()
  temp = trackingData[which(trackingData$Action == "Session"),]
  usersDateSessionsMoneySpent = data.frame(UserID=temp$UserID, Date=temp$Date, Money=temp$MoneySpent, DateMonth=month(as.POSIXlt(temp$Date, format="%Y-%m-%d")))
  
  sum(usersDateSessionsMoneySpent$Money)

## [1] 211248.1

  summarise(group_by(usersDateSessionsMoneySpent,Date),Revenue=sum(Money))

## # A tibble: 119 x 2
##    Date       Revenue
##    <fct>        <dbl>
##  1 2018-03-01    30.5
##  2 2018-03-02   340. 
##  3 2018-03-03   329. 
##  4 2018-03-04   520. 
##  5 2018-03-05   569. 
##  6 2018-03-06   756. 
##  7 2018-03-07   860. 
##  8 2018-03-08   826. 
##  9 2018-03-09  1078. 
## 10 2018-03-10  1097. 
## # ... with 109 more rows
…
